uvm_tb/4dma/dma_without_ral/dump.vcd
$date
	Sun Nov 13 13:50:41 2022
$end

$version
	Synopsys VCS version O-2018.09-SP2_Full64
$end

$timescale
	1ns
$end

$comment Csum: 1 8ea2d617cf24b825 $end


$scope module $unit $end
$upscope $end


$scope module tb $end
$var reg 1 ! clk $end
$var reg 1 " reset $end

$scope begin unnamed$$_vcs_2 $end
$upscope $end


$scope begin unnamed$$_vcs_0 $end
$upscope $end


$scope begin unnamed$$_vcs_1 $end
$upscope $end


$scope begin unnamed$$_vcs_3 $end
$upscope $end


$scope module intf $end
$var reg 1 # clk $end
$var reg 1 $ reset $end
$var reg 32 % addr [31:0] $end
$var reg 1 & wr_en $end
$var reg 1 ' valid $end
$var reg 32 ( wdata [31:0] $end
$var reg 32 ) rdata [31:0] $end
$upscope $end


$scope module DUT $end
$var wire 1 * clk $end
$var wire 1 + reset $end
$var wire 32 , addr [31:0] $end
$var wire 1 - wr_en $end
$var wire 1 . valid $end
$var wire 32 / wdata [31:0] $end
$var wire 32 0 rdata [31:0] $end
$var reg 32 1 t_data [31:0] $end
$var reg 32 2 intr [31:0] $end
$var reg 32 3 control [31:0] $end
$var reg 32 4 io_address [31:0] $end
$var reg 32 5 mem_address [31:0] $end
$upscope $end

$upscope $end


$scope module uvm_pkg $end
$var reg 32 6 UVM_UNBOUNDED_CONNECTIONS [31:0] $end
$var reg 1 7 uvm_start_uvm_declarations $end
$var reg 32 8 uvm_global_random_seed [31:0] $end
$upscope $end

$enddefinitions $end

#0
$dumpvars
17
b11111111111111111111111111111111 6
b01000010000001111100110001000111 8
0!
1"
bxxxxxxxxxxxxxxxxxxxxxxxxxxxxxxxx )
bxxxxxxxxxxxxxxxxxxxxxxxxxxxxxxxx (
bxxxxxxxxxxxxxxxxxxxxxxxxxxxxxxxx %
b00000000000000000000000000000000 3
b00000000000000000000000000000000 2
b00000000000000000000000000000000 4
b00000000000000000000000000000000 5
bxxxxxxxxxxxxxxxxxxxxxxxxxxxxxxxx 1
0#
1$
bxxxxxxxxxxxxxxxxxxxxxxxxxxxxxxxx ,
bxxxxxxxxxxxxxxxxxxxxxxxxxxxxxxxx /
bxxxxxxxxxxxxxxxxxxxxxxxxxxxxxxxx 0
0*
1+
x-
x.
x'
x&
$end
#5
1!
1#
1*
0"
0$
0+
#6
1&
1-
b00000000000000000000010000000000 %
1'
1.
b11111111111111110000111100001111 (
b00000000000000000000010000000000 ,
b11111111111111110000111100001111 /
#10
0!
0#
0*
#15
1!
1#
1*
b11111111111111110000111100001111 2
#16
0'
0.
0&
0-
#20
0!
0#
0*
#25
1!
1#
1*
#26
b00000000000000000000010000000100 %
1'
1.
1&
1-
b00010010001101000101011001111000 (
b00000000000000000000010000000100 ,
b00010010001101000101011001111000 /
#30
0!
0#
0*
#35
1!
1#
1*
b00010010001101000101011001111000 3
#36
0'
0.
0&
0-
#40
0!
0#
0*
#45
1!
1#
1*
#46
b00000000000000000000010000001000 %
1'
1.
1&
1-
b10101011110011011110111100010010 (
b00000000000000000000010000001000 ,
b10101011110011011110111100010010 /
#50
0!
0#
0*
#55
1!
1#
1*
b10101011110011011110111100010010 4
#56
0'
0.
0&
0-
#60
0!
0#
0*
#65
1!
1#
1*
#66
b00000000000000000000010000001100 %
1'
1.
1&
1-
b10010111001100010010001101000101 (
b00000000000000000000010000001100 ,
b10010111001100010010001101000101 /
#70
0!
0#
0*
#75
1!
1#
1*
b10010111001100010010001101000101 5
#76
0'
0.
0&
0-
#80
0!
0#
0*
#85
1!
1#
1*
#86
b00000000000000000000010000000000 %
1'
1.
b00000000000000000000010000000000 ,
#90
0!
0#
0*
#95
1!
1#
1*
b11111111111111110000111100001111 1
b11111111111111110000111100001111 0
b11111111111111110000111100001111 )
#100
0!
0#
0*
#105
1!
1#
1*
#106
0'
0.
#110
0!
0#
0*
#115
1!
1#
1*
#116
b00000000000000000000010000000100 %
1'
1.
b00000000000000000000010000000100 ,
#120
0!
0#
0*
#125
1!
1#
1*
b00010010001101000101011001111000 1
b00010010001101000101011001111000 0
b00010010001101000101011001111000 )
#130
0!
0#
0*
#135
1!
1#
1*
#136
0'
0.
#140
0!
0#
0*
#145
1!
1#
1*
#146
b00000000000000000000010000001000 %
1'
1.
b00000000000000000000010000001000 ,
#150
0!
0#
0*
#155
1!
1#
1*
b10101011110011011110111100010010 1
b10101011110011011110111100010010 0
b10101011110011011110111100010010 )
#160
0!
0#
0*
#165
1!
1#
1*
#166
0'
0.
#170
0!
0#
0*
#175
1!
1#
1*
#176
b00000000000000000000010000001100 %
1'
1.
b00000000000000000000010000001100 ,
#180
0!
0#
0*
#185
1!
1#
1*
b10010111001100010010001101000101 1
b10010111001100010010001101000101 0
b10010111001100010010001101000101 )
